Chapter 8
…
lm_fit <- fit(lm_wflow, ames_train)

1.22 Extract Recipe

estimated_recipe <- 
  lm_fit |> 
  extract_recipe(estimated = TRUE)

tidy(estimated_recipe, id = "my_id")

# A tibble: 22 × 3
   terms        retained           id   
   <chr>        <chr>              <chr>
 1 Neighborhood North_Ames         my_id
 2 Neighborhood College_Creek      my_id
 3 Neighborhood Old_Town           my_id
 4 Neighborhood Edwards            my_id
 5 Neighborhood Somerset           my_id
 6 Neighborhood Northridge_Heights my_id
 7 Neighborhood Gilbert            my_id
 8 Neighborhood Sawyer             my_id
 9 Neighborhood Northwest_Ames     my_id
10 Neighborhood Sawyer_West        my_id
# … with 12 more rows
# ℹ Use `print(n = ...)` to see more rows

tidy(estimated_recipe, number = 2)

# A tibble: 22 × 3
   terms        retained           id   
   <chr>        <chr>              <chr>
 1 Neighborhood North_Ames         my_id
 2 Neighborhood College_Creek      my_id
 3 Neighborhood Old_Town           my_id
 4 Neighborhood Edwards            my_id
 5 Neighborhood Somerset           my_id
 6 Neighborhood Northridge_Heights my_id
 7 Neighborhood Gilbert            my_id
 8 Neighborhood Sawyer             my_id
 9 Neighborhood Northwest_Ames     my_id
10 Neighborhood Sawyer_West        my_id
# … with 12 more rows
# ℹ Use `print(n = ...)` to see more rows
…
